{
   "description": {
      "message": "Custom page brightness and contrast. Invert websites to protect your eyes. Easy to use, supports almost all sites."
   },
   "name": {
      "message": "Night Reading Mode"
   }
}
