{
   "description": {
      "message": "P\u00E1gina personalizada de brillo y contraste. Invierta sitios web para proteger sus ojos."
   },
   "name": {
      "message": "Modo Noche de Lectura"
   }
}
